{
  "apiId": "artic",
  "operationId": "artwork",
  "data": {
    "pagination": {
      "total": 132018,
      "limit": 2,
      "offset": 0,
      "total_pages": 66009,
      "current_page": 1,
      "next_url": "https://api.artic.edu/api/v1/artworks?page=2&limit=2&fields=id%2Ctitle%2Cimage_id%2Cartist_title"
    },
    "data": [
      {
        "id": 132108,
        "title": "The Child's Companion and Juvenile Instruction",
        "artist_title": "George Baxter",
        "image_id": "0431a3a2-e470-677e-671a-b4dacf14468d"
      },
      {
        "id": 128182,
        "title": "Boaz and Ruth, from Religious Events, No. 1 and No. 2",
        "artist_title": "George Baxter",
        "image_id": "3af70794-4bd6-7c3c-73a1-267219daa830"
      }
    ],
    "info": {
      "license_text": "The `description` field in this response is licensed under a Creative Commons Attribution 4.0 Generic License (CC-By) and the Terms and Conditions of artic.edu. All other data in this response is licensed under a Creative Commons Zero (CC0) 1.0 designation and the Terms and Conditions of artic.edu.",
      "license_links": [
        "https://creativecommons.org/publicdomain/zero/1.0/",
        "https://www.artic.edu/terms"
      ],
      "version": "1.14"
    },
    "config": {
      "iiif_url": "https://www.artic.edu/iiif/2",
      "website_url": "http://www.artic.edu"
    }
  }
}
